{
	"name": "edea-ps",
	"dockerComposeFile": "docker-compose.devcontainer.yml",
	"service": "devcontainer",
	"workspaceFolder": "/workspace/edea-ps",
	"features": {
		"ghcr.io/devcontainers-contrib/features/zsh-plugins:0": {},
		"ghcr.io/rocker-org/devcontainer-features/apt-packages:1": {
			"packages": "git-delta,neovim,gnupg2,libvips,python3-poetry,sudo"
		}
	},
	"postCreateCommand": "git config --global --add safe.directory ${containerWorkspaceFolder} && poetry install && poetry run nodeenv -p && poetry run npm install",
	"customizations": {
		"vscode": {
			"extensions": [
				"ms-python.python",
				"ms-python.black-formatter",
				"ms-python.isort",
				"ms-vscode.live-server",
				"qwtel.sqlite-viewer",
				"svelte.svelte-vscode",
				"tamasfe.even-better-toml",
				"bradlc.vscode-tailwindcss",
				"ms-playwright.playwright",
				"naumovs.color-highlight",
				"esbenp.prettier-vscode",
				"dbaeumer.vscode-eslint",
				"ms-python.mypy-type-checker",
				"ms-azuretools.vscode-docker"
			]
		}
	},
	"remoteUser": "root"
}
